


ARM Macro Assembler    Page 1 


    1 00000000         
    2 00000000         ;GIPO BUS ENABLER 
    3 00000000 580244E0 
                       RCC_AHB4ENR
                               EQU              0x580244E0  ; DEFAULT VALUE:0x5
                                                            8024400 + OFFSET: 0
                                                            x0E0
    4 00000000         ; OBS-> FOR GPIO b and c SETUP -> GPIO_b_c_AHB4_ENB_SETU
                       P EQU 0x06 ; 0b0000.0000.0000.0000.0000.0000.0000.0110 
    5 00000000 00000006 
                       GPIO_b_c_AHB4_ENB_SETUP
                               EQU              0x06
    6 00000000         
    7 00000000         ;GPIO b CONFIG -> LEDS OUTPUT
    8 00000000 00000002 
                       GPIOb_AHB4_ENB_SETUP
                               EQU              0x02        ; 0b0000.0000.0000.
                                                            0000.0000.0000.0000
                                                            .0010 
    9 00000000         
   10 00000000 58020400 
                       GPIOb_MODER
                               EQU              0x58020400  ; DEFAULT VALUE:0x5
                                                            802.0400 + OFFSET: 
                                                            0x00 
   11 00000000 DFFF7FFD 
                       GPIOb_MODER_SETUP
                               EQU              0xDFFF7FFD  ; DEFAULT VALUE:0xF
                                                            FFF.FEBF// SETS LED
                                                            S OUTPUT TYPE DIGIT
                                                            AL -> 0xDFFF7FFD >>
                                                             0b1101.1111.1111.1
                                                            111.0111.1111.1111.
                                                            1101 
   12 00000000         
   13 00000000 58020404 
                       GPIOb_OTYPER
                               EQU              0x58020404  ; DEFAULT VALUE:0x5
                                                            802.0400 + OFFSET: 
                                                            0x04
   14 00000000 00000000 
                       GPIOb_OTYPER_SEUTP
                               EQU              0x00        ; DEFAULT VALUE:0x0
                                                            000.0000 
   15 00000000         
   16 00000000 58020408 
                       GPIOb_OSPEEDR
                               EQU              0x58020408  ; DEFAULT VALUE:0x5
                                                            802.0400 + OFFSET: 
                                                            0x08  
   17 00000000 20008C02 
                       GPIOb_SPEED_SETUP
                               EQU              0x20008C02  ; DEFAULT VALUE:0x0
                                                            000.00C0 // SETS HI
                                                            GH SPEED 0x20008C02
                                                             >> 0b0010.0000.000
                                                            0.0000.1000.1100.00
                                                            00.0010
   18 00000000         



ARM Macro Assembler    Page 2 


   19 00000000 5802040C 
                       GPIOb_PUPDR
                               EQU              0x5802040C  ; DEFAULT VALUE:0x5
                                                            802.0400 + OFFSET: 
                                                            0x0C
   20 00000000 10004101 
                       GPIOb_PUPDR_SETUP
                               EQU              0x10004101  ; DEFAULT VALUE:0x0
                                                            000.0100 // SETS PU
                                                            LL-UP 0x10004101 >>
                                                             0b0001.0000.0000.0
                                                            000.0100.0001.0000.
                                                            0001
   21 00000000         
   22 00000000         ;OUTPUTS DATA REGISTER
   23 00000000 58020414 
                       GPIOB_ODR
                               EQU              0x58020414  ; DEFAULT VALUE:0x5
                                                            802.0400 + OFFSET: 
                                                            0x14
   24 00000000         
   25 00000000         ;GPIO b CONFIG -> INPUT PC13
   26 00000000 00000004 
                       GPIOc_AHB4_ENB_SETUP
                               EQU              0x04        ; 0b0000.0000.0000.
                                                            0000.0000.0000.0000
                                                            .0100
   27 00000000         
   28 00000000 58020800 
                       GPIOc_MODER
                               EQU              0x58020800  ; DEFAULT VALUE:0x5
                                                            802.0800 + OFFSET: 
                                                            0x00 
   29 00000000 F3FFFFFF 
                       GPIOc_MODER_SETUP
                               EQU              0xF3FFFFFF  ; DEFAULT VALUE:0xF
                                                            FFF.FFFF// SETS BUT
                                                            TON INPUT -> 0xF3FF
                                                            .FFFF >> 0b1111.001
                                                            1.1111.1111.1111.11
                                                            11.1111.1111 
   30 00000000         
   31 00000000 5802080C 
                       GPIOc_PUPDR
                               EQU              0x5802080C  ; DEFAULT VALUE:0x5
                                                            802.0800 + OFFSET: 
                                                            0x0C
   32 00000000 08000000 
                       GPIOc_PUPDR_SETUP
                               EQU              0x08000000  ; DEFAULT VALUE:0x0
                                                            000.0000 // SETS PU
                                                            LL-DOWN 0x0400.0000
                                                             >> 0b0000.0100.000
                                                            0.0000.0000.0000.00
                                                            00.0000
   33 00000000         
   34 00000000         ;INPUT DATA REGISTER
   35 00000000 58020810 
                       GPIOc_IDR



ARM Macro Assembler    Page 3 


                               EQU              0x58020810  ; DEFAULT VALUE:0x5
                                                            802.0800 + OFFSET: 
                                                            0x10 ; READ INPUT S
                                                            TATE REGISTER.
   36 00000000         
   37 00000000         ;VARIABLES 
   38 00000000         
   39 00000000 00002000 
                       BUTTON_PRESSED
                               EQU              0x00002000  ;  -> OFF DEFAULT V
                                                            ALUE:0x0000.0000 / 
                                                            ON-> 0x0000.2000 >>
                                                             0b0000.0000.0000.0
                                                            000.0010.0000.0000.
                                                            0000
   40 00000000         
   41 00000000 00000000 
                       ALL_LEDS_OFF
                               EQU              0x00000000  ; DEFAULT VALUE:0x0
                                                            000.0000 -> LOW STA
                                                            TE >> OFF
   42 00000000 00000001 
                       LED_1   EQU              0x01        ; 0x01 0b 
   43 00000000 00000080 
                       LED_2   EQU              0x80        ; 0x01
   44 00000000 00004000 
                       LED_3   EQU              0x4000      ; 0x01
   45 00000000 00004081 
                       ALL_LEDS_ON
                               EQU              0x4081      ; 0x4081
   46 00000000         
   47 00000000         
   48 00000000         
   49 00000000 00516155 
                       DELAY_x EQU              5333333     ;16Mhz -> 1s = 16.0
                                                            00.000cycles  delay
                                                             consumes 3 cycles 
                                                            
   50 00000000         ;16.000.000/3 = 5333333.3 cycles for 1sec
   51 00000000         ; 1/5 sec = 0.2sec -> 0.2 * 5333333.3 = 1066666.6 cycles
                       
   52 00000000         
   53 00000000 001046AA 
                       DELAY_readbutton
                               EQU              1066666
   54 00000000         
   55 00000000         
   56 00000000                 AREA             |.text|, CODE, ALIGN=2, READONL
Y
   57 00000000                 THUMB
   58 00000000                 EXPORT           Main
   59 00000000         
   60 00000000         
   61 00000000         Main
   62 00000000 F000 F836       BL               GPIO_setup
   63 00000004         
   64 00000004         main_loop
   65 00000004         
   66 00000004 4826            LDR              R0, =DELAY_readbutton



ARM Macro Assembler    Page 4 


   67 00000006 F000 F80D       BL               delay_reader
   68 0000000A         
   69 0000000A F000 F806       BL               read_button
   70 0000000E         
   71 0000000E F5B0 5F00       CMP              R0, #BUTTON_PRESSED
   72 00000012 D012            BEQ              led_sequencial
   73 00000014 F000 F827       BL               leds_off
   74 00000018         
   75 00000018 E7F4            B                main_loop
   76 0000001A         
   77 0000001A         
   78 0000001A         read_button
   79 0000001A 4922            LDR              R1, =GPIOc_IDR
   80 0000001C 6808            LDR              R0, [R1]
   81 0000001E F400 5000       AND              R0, R0, #0x2000
   82 00000022 4770            BX               LR
   83 00000024         
   84 00000024         
   85 00000024         delay_reader
   86 00000024 1E40            SUBS             R0, R0, #1
   87 00000026 D100            BNE              delay_Xms
   88 00000028 4770            BX               LR
   89 0000002A         
   90 0000002A         delay_Xms
   91 0000002A 1E40            SUBS             R0, R0, #1
   92 0000002C D1FD            BNE              delay_Xms
   93 0000002E 4770            BX               LR
   94 00000030         
   95 00000030         leds_on
   96 00000030 481D            LDR              R0, =GPIOB_ODR
   97 00000032 F244 0181       MOV              R1, #ALL_LEDS_ON
   98 00000036 6001            STR              R1, [R0]
   99 00000038 E7E4            B                main_loop
  100 0000003A         
  101 0000003A         led_sequencial
  102 0000003A         
  103 0000003A 481B            LDR              R0, =GPIOB_ODR
  104 0000003C F04F 0101       MOV              R1, #LED_1
  105 00000040 6001            STR              R1, [R0]
  106 00000042         
  107 00000042 481A            LDR              R0, =DELAY_x
  108 00000044 F7FF FFF1       BL               delay_Xms
  109 00000048         
  110 00000048 4817            LDR              R0, =GPIOB_ODR
  111 0000004A F04F 0180       MOV              R1, #LED_2
  112 0000004E 6001            STR              R1, [R0]
  113 00000050         
  114 00000050 4816            LDR              R0, =DELAY_x
  115 00000052 F7FF FFEA       BL               delay_Xms
  116 00000056         
  117 00000056 4814            LDR              R0, =GPIOB_ODR
  118 00000058 F44F 4180       MOV              R1, #LED_3
  119 0000005C 6001            STR              R1, [R0]
  120 0000005E         
  121 0000005E 4813            LDR              R0, =DELAY_x
  122 00000060 F7FF FFE3       BL               delay_Xms
  123 00000064         
  124 00000064 E7CE            B                main_loop
  125 00000066         



ARM Macro Assembler    Page 5 


  126 00000066         leds_off
  127 00000066 4810            LDR              R0, =GPIOB_ODR
  128 00000068 F04F 0100       MOV              R1, #ALL_LEDS_OFF
  129 0000006C 6001            STR              R1, [R0]
  130 0000006E 4770            BX               LR
  131 00000070         
  132 00000070         
  133 00000070         GPIO_setup
  134 00000070         ;GPIO B AND C ENABLE
  135 00000070 490F            LDR              R1, =RCC_AHB4ENR
  136 00000072 6808            LDR              R0, [R1]
  137 00000074 F040 0006       ORR              R0,R0,#GPIO_b_c_AHB4_ENB_SETUP
  138 00000078 6008            STR              R0,[R1]
  139 0000007A         
  140 0000007A         ;GPIO b SETUP LEDS 
  141 0000007A         
  142 0000007A 490E            LDR              R1, =GPIOb_MODER
  143 0000007C 480E            LDR              R0, =GPIOb_MODER_SETUP
  144 0000007E 6008            STR              R0,[R1]
  145 00000080         
  146 00000080 490E            LDR              R1, =GPIOb_OSPEEDR
  147 00000082 480F            LDR              R0, =GPIOb_SPEED_SETUP
  148 00000084 6008            STR              R0,[R1]
  149 00000086         
  150 00000086 490F            LDR              R1, =GPIOb_PUPDR
  151 00000088 480F            LDR              R0, =GPIOb_PUPDR_SETUP
  152 0000008A 6008            STR              R0,[R1]
  153 0000008C         
  154 0000008C         ;GPIOc SETUP
  155 0000008C 490F            LDR              R1, =GPIOc_MODER
  156 0000008E F06F 6040       LDR              R0, =GPIOc_MODER_SETUP
  157 00000092 6008            STR              R0,[R1]
  158 00000094         
  159 00000094 490E            LDR              R1, =GPIOc_PUPDR
  160 00000096 F04F 6000       LDR              R0, =GPIOc_PUPDR_SETUP
  161 0000009A 6008            STR              R0,[R1]
  162 0000009C         
  163 0000009C 4770            BX               LR
  164 0000009E         
  165 0000009E 00 00           ALIGN
  166 000000A0                 END
              001046AA 
              58020810 
              58020414 
              00516155 
              580244E0 
              58020400 
              DFFF7FFD 
              58020408 
              20008C02 
              5802040C 
              10004101 
              58020800 
              5802080C 
Command Line: --debug --xref --diag_suppress=9931 --cpu=Cortex-M7.fp.dp --apcs=
interwork --depend=.\objects\main.d -o.\objects\main.o -I.\RTE\_Target_1 -IC:\K
eil_v5\Arm\Packs\ARM\CMSIS\5.5.1\CMSIS\Core\Include -IC:\Keil_v5\Arm\Packs\Keil
\STM32H7xx_DFP\2.2.0\Drivers\CMSIS\Device\ST\STM32H7xx\Include --predefine="__E
VAL SETA 1" --predefine="__UVISION_VERSION SETA 527" --predefine="_RTE_ SETA 1"



ARM Macro Assembler    Page 6 


 --predefine="STM32H743xx SETA 1" --list=.\listings\main.lst main.s



ARM Macro Assembler    Page 1 Alphabetic symbol ordering
Relocatable symbols

.text 00000000

Symbol: .text
   Definitions
      At line 56 in file main.s
   Uses
      None
Comment: .text unused
GPIO_setup 00000070

Symbol: GPIO_setup
   Definitions
      At line 133 in file main.s
   Uses
      At line 62 in file main.s
Comment: GPIO_setup used once
Main 00000000

Symbol: Main
   Definitions
      At line 61 in file main.s
   Uses
      At line 58 in file main.s
Comment: Main used once
delay_Xms 0000002A

Symbol: delay_Xms
   Definitions
      At line 90 in file main.s
   Uses
      At line 87 in file main.s
      At line 92 in file main.s
      At line 108 in file main.s
      At line 115 in file main.s
      At line 122 in file main.s

delay_reader 00000024

Symbol: delay_reader
   Definitions
      At line 85 in file main.s
   Uses
      At line 67 in file main.s
Comment: delay_reader used once
led_sequencial 0000003A

Symbol: led_sequencial
   Definitions
      At line 101 in file main.s
   Uses
      At line 72 in file main.s
Comment: led_sequencial used once
leds_off 00000066

Symbol: leds_off
   Definitions
      At line 126 in file main.s
   Uses
      At line 73 in file main.s



ARM Macro Assembler    Page 2 Alphabetic symbol ordering
Relocatable symbols

Comment: leds_off used once
leds_on 00000030

Symbol: leds_on
   Definitions
      At line 95 in file main.s
   Uses
      None
Comment: leds_on unused
main_loop 00000004

Symbol: main_loop
   Definitions
      At line 64 in file main.s
   Uses
      At line 75 in file main.s
      At line 99 in file main.s
      At line 124 in file main.s

read_button 0000001A

Symbol: read_button
   Definitions
      At line 78 in file main.s
   Uses
      At line 69 in file main.s
Comment: read_button used once
10 symbols



ARM Macro Assembler    Page 1 Alphabetic symbol ordering
Absolute symbols

ALL_LEDS_OFF 00000000

Symbol: ALL_LEDS_OFF
   Definitions
      At line 41 in file main.s
   Uses
      At line 128 in file main.s
Comment: ALL_LEDS_OFF used once
ALL_LEDS_ON 00004081

Symbol: ALL_LEDS_ON
   Definitions
      At line 45 in file main.s
   Uses
      At line 97 in file main.s
Comment: ALL_LEDS_ON used once
BUTTON_PRESSED 00002000

Symbol: BUTTON_PRESSED
   Definitions
      At line 39 in file main.s
   Uses
      At line 71 in file main.s
Comment: BUTTON_PRESSED used once
DELAY_readbutton 001046AA

Symbol: DELAY_readbutton
   Definitions
      At line 53 in file main.s
   Uses
      At line 66 in file main.s
Comment: DELAY_readbutton used once
DELAY_x 00516155

Symbol: DELAY_x
   Definitions
      At line 49 in file main.s
   Uses
      At line 107 in file main.s
      At line 114 in file main.s
      At line 121 in file main.s

GPIOB_ODR 58020414

Symbol: GPIOB_ODR
   Definitions
      At line 23 in file main.s
   Uses
      At line 96 in file main.s
      At line 103 in file main.s
      At line 110 in file main.s
      At line 117 in file main.s
      At line 127 in file main.s

GPIO_b_c_AHB4_ENB_SETUP 00000006

Symbol: GPIO_b_c_AHB4_ENB_SETUP
   Definitions
      At line 5 in file main.s



ARM Macro Assembler    Page 2 Alphabetic symbol ordering
Absolute symbols

   Uses
      At line 137 in file main.s
Comment: GPIO_b_c_AHB4_ENB_SETUP used once
GPIOb_AHB4_ENB_SETUP 00000002

Symbol: GPIOb_AHB4_ENB_SETUP
   Definitions
      At line 8 in file main.s
   Uses
      None
Comment: GPIOb_AHB4_ENB_SETUP unused
GPIOb_MODER 58020400

Symbol: GPIOb_MODER
   Definitions
      At line 10 in file main.s
   Uses
      At line 142 in file main.s
Comment: GPIOb_MODER used once
GPIOb_MODER_SETUP DFFF7FFD

Symbol: GPIOb_MODER_SETUP
   Definitions
      At line 11 in file main.s
   Uses
      At line 143 in file main.s
Comment: GPIOb_MODER_SETUP used once
GPIOb_OSPEEDR 58020408

Symbol: GPIOb_OSPEEDR
   Definitions
      At line 16 in file main.s
   Uses
      At line 146 in file main.s
Comment: GPIOb_OSPEEDR used once
GPIOb_OTYPER 58020404

Symbol: GPIOb_OTYPER
   Definitions
      At line 13 in file main.s
   Uses
      None
Comment: GPIOb_OTYPER unused
GPIOb_OTYPER_SEUTP 00000000

Symbol: GPIOb_OTYPER_SEUTP
   Definitions
      At line 14 in file main.s
   Uses
      None
Comment: GPIOb_OTYPER_SEUTP unused
GPIOb_PUPDR 5802040C

Symbol: GPIOb_PUPDR
   Definitions
      At line 19 in file main.s
   Uses
      At line 150 in file main.s
Comment: GPIOb_PUPDR used once



ARM Macro Assembler    Page 3 Alphabetic symbol ordering
Absolute symbols

GPIOb_PUPDR_SETUP 10004101

Symbol: GPIOb_PUPDR_SETUP
   Definitions
      At line 20 in file main.s
   Uses
      At line 151 in file main.s
Comment: GPIOb_PUPDR_SETUP used once
GPIOb_SPEED_SETUP 20008C02

Symbol: GPIOb_SPEED_SETUP
   Definitions
      At line 17 in file main.s
   Uses
      At line 147 in file main.s
Comment: GPIOb_SPEED_SETUP used once
GPIOc_AHB4_ENB_SETUP 00000004

Symbol: GPIOc_AHB4_ENB_SETUP
   Definitions
      At line 26 in file main.s
   Uses
      None
Comment: GPIOc_AHB4_ENB_SETUP unused
GPIOc_IDR 58020810

Symbol: GPIOc_IDR
   Definitions
      At line 35 in file main.s
   Uses
      At line 79 in file main.s
Comment: GPIOc_IDR used once
GPIOc_MODER 58020800

Symbol: GPIOc_MODER
   Definitions
      At line 28 in file main.s
   Uses
      At line 155 in file main.s
Comment: GPIOc_MODER used once
GPIOc_MODER_SETUP F3FFFFFF

Symbol: GPIOc_MODER_SETUP
   Definitions
      At line 29 in file main.s
   Uses
      At line 156 in file main.s
Comment: GPIOc_MODER_SETUP used once
GPIOc_PUPDR 5802080C

Symbol: GPIOc_PUPDR
   Definitions
      At line 31 in file main.s
   Uses
      At line 159 in file main.s
Comment: GPIOc_PUPDR used once
GPIOc_PUPDR_SETUP 08000000

Symbol: GPIOc_PUPDR_SETUP



ARM Macro Assembler    Page 4 Alphabetic symbol ordering
Absolute symbols

   Definitions
      At line 32 in file main.s
   Uses
      At line 160 in file main.s
Comment: GPIOc_PUPDR_SETUP used once
LED_1 00000001

Symbol: LED_1
   Definitions
      At line 42 in file main.s
   Uses
      At line 104 in file main.s
Comment: LED_1 used once
LED_2 00000080

Symbol: LED_2
   Definitions
      At line 43 in file main.s
   Uses
      At line 111 in file main.s
Comment: LED_2 used once
LED_3 00004000

Symbol: LED_3
   Definitions
      At line 44 in file main.s
   Uses
      At line 118 in file main.s
Comment: LED_3 used once
RCC_AHB4ENR 580244E0

Symbol: RCC_AHB4ENR
   Definitions
      At line 3 in file main.s
   Uses
      At line 135 in file main.s
Comment: RCC_AHB4ENR used once
26 symbols
373 symbols in table
